<?xml version="1.0" encoding="UTF-8" standalone="no"?>
<!-- Created with Inkscape (http://www.inkscape.org/) -->

<svg
   version="1.1"
   id="svg2"
   width="1352"
   height="1328"
   viewBox="0 0 1352 1328"
   sodipodi:docname="astrokid.svg"
   inkscape:version="1.1.2 (0a00cf5339, 2022-02-04)"
   xmlns:inkscape="http://www.inkscape.org/namespaces/inkscape"
   xmlns:sodipodi="http://sodipodi.sourceforge.net/DTD/sodipodi-0.dtd"
   xmlns="http://www.w3.org/2000/svg"
   xmlns:svg="http://www.w3.org/2000/svg">
  <defs
     id="defs6" />
  <sodipodi:namedview
     id="namedview4"
     pagecolor="#ffffff"
     bordercolor="#cccccc"
     borderopacity="1"
     inkscape:pageshadow="0"
     inkscape:pageopacity="1"
     inkscape:pagecheckerboard="0"
     showgrid="false"
     inkscape:zoom="0.51355422"
     inkscape:cx="1019.3666"
     inkscape:cy="759.41349"
     inkscape:window-width="1920"
     inkscape:window-height="1056"
     inkscape:window-x="1920"
     inkscape:window-y="0"
     inkscape:window-maximized="1"
     inkscape:current-layer="g8" />
  <g
     inkscape:groupmode="layer"
     inkscape:label="Image"
     id="g8">
    <path
       style="fill:#ffcc00;stroke:none;stroke-width:1"
       d="m 463.91132,333.38976 c -21.90696,45.12426 -28.10551,100.67064 -40.28105,149.27684 -12.32245,-10.42213 -0.7452,-30.39442 -2.79716,-45.02 -2.10528,-14.99877 -13.98227,-25.05363 -18.00563,-39.09631 -5.88933,-20.55045 -1.09351,-42.50955 -10.11528,-62.79105 -17.79238,-39.99198 -59.92518,-66.35237 -80.68176,-105.44158 -10.39489,-19.57422 -13.86616,-52.17818 -34.12279,-63.84902 -28.38985,-16.35529 -59.46313,13.33066 -59.20604,41.33902 0.30448,33.17619 26.82718,53.62356 39.06551,81.74684 -53.36884,21.05988 -46.99851,115.58174 -38.43405,159.93947 3.61937,18.74609 -2.24863,33.2603 11.76207,49.74947 5.15005,6.06111 16.44652,10.15082 19.79814,16.97017 7.53374,15.33167 1.27951,35.23051 12.22767,49.37509 8.12492,10.49676 21.20797,9.57267 29.59591,18.19045 18.8539,19.37044 30.43825,43.3815 51.53605,61.99372 62.19986,54.87227 149.95569,84.50372 232.20841,84.50372 0.21681,11.41612 9.26583,39.00983 3.52459,48.35503 -6.48999,10.5643 -29.80916,19.00673 -40.25143,26.24666 -32.65727,22.64388 -106.38937,72.99993 -113.35799,114.9562 -8.32514,50.12738 81.25873,47.94158 104.6324,67.36648 13.60197,11.3 14.38152,59.87434 18.64539,77.17144 2.13134,8.6486 17.6822,52.4839 10.59629,57.7204 -7.01838,5.1892 -29.6516,-1.7889 -38.28714,-1.9785 -26.39712,-0.5924 -56.78681,3.2699 -80.56211,15.0462 -10.3617,5.1417 -52.21253,49.2495 -24.87947,55.9788 0.81036,22.7469 27.72166,22.6166 46.20474,25.0927 42.19677,5.6749 84.16251,9.2646 126.76683,9.2646 12.22056,0 36.91166,1.4928 46.5803,-7.2624 27.22051,-24.6425 4.46646,-74.5081 0.98452,-101.7689 -2.82915,-22.1309 2.37658,-46.6431 4.67734,-68.6792 1.16104,-11.1247 0.71321,-47.93454 12.01915,-53.24214 13.6695,-6.4059 81.98024,-18.8835 95.67461,-14.3981 14.15168,4.6347 31.12777,28.65054 42.65408,38.69714 37.34646,32.521 100.42303,69.4611 125.99794,111.8628 2.57325,4.2651 -5.60736,28.3863 -4.99248,36.7387 2.17755,29.5829 28.93127,51.4295 54.33558,62.9333 44.24044,20.0102 181.52534,12.0369 125.39254,-65.3027 -5.8645,-8.0918 -13.4468,-14.8922 -21.1357,-21.2068 -35.7352,-29.3223 -73.01414,-39.0608 -101.13269,-77.1264 -29.66462,-40.1626 -57.59953,-82.49324 -84.71697,-124.39742 -17.62888,-27.24184 25.96825,-32.42862 36.45317,-59.23684 12.82714,-32.79944 -2.67395,-50.298 -18.83613,-77.0079 33.7413,-14.56396 108.99812,-51.89028 104.02702,-97.14841 -1.9809,-18.0317 -26.03462,-32.71651 -40.05124,-41.2087 -41.28334,-25.01217 -91.67375,-48.37636 -140.98368,-48.8313 10.11529,-15.93234 63.52678,-10.31195 81.74684,-16.21786 31.79952,-10.3084 33.87637,-35.51367 53.59868,-55.81651 16.70361,-17.19527 36.43421,-18.69514 45.4607,-45.25457 7.016,-20.64404 -8.59524,-50.48756 -2.7711,-65.06456 5.4498,-13.63988 28.8069,-27.05465 37.8417,-40.37702 26.9231,-39.6946 38.9482,-97.8249 26.7809,-144.53789 C 1045.3126,160.27484 965.79782,158.82353 895.20409,127.36522 877.80268,119.60993 863.74815,88.594712 848.95078,75.505732 806.15335,37.647471 740.90516,28.835398 689.01132,53.858222 c -16.82445,8.11308 -33.30533,18.89063 -45.63488,33.1288 -6.05045,6.98639 -13.57709,24.668588 -23.12843,26.801108 -12.47884,2.78769 -37.0716,-8.7398 -50.89511,-9.97903 -30.62545,-2.74859 -63.10619,6.08125 -90.04,20.21279 -69.62461,36.53017 -92.97459,165.15586 -15.40158,209.36787 M 858.42868,142.64714 c 46.90847,-4.43921 101.89803,0.94068 140.98368,30.59227 64.87144,49.21397 64.48164,152.09414 17.85284,213.46351 -27.48949,36.17949 -58.09598,27.02266 -94.86073,45.02 18.00918,6.94492 37.23035,-2.41331 53.14255,12.28453 23.6201,21.81693 14.38981,70.47999 -17.60045,79.47926 -27.52973,7.74462 -52.42816,-8.80615 -75.82316,-20.67959 -9.61058,85.32712 -93.98398,91.0648 -155.16497,117.03186 -20.5469,8.72085 -23.27534,34.79217 -53.3487,33.12406 -32.47719,-1.8008 -6.90465,-37.39148 -29.6978,-44.11249 -14.69785,-4.33259 -34.30642,1.49632 -49.67957,0.42176 -51.11191,-3.57316 -99.71693,-21.37383 -131.41219,-63.81466 -44.3601,-59.40033 4.79937,-167.86536 29.09477,-226.28473 11.24433,-27.03451 11.97176,-50.86549 38.34163,-70.51316 25.8403,-19.25435 34.46163,13.75953 56.86737,23.73501 23.55494,10.48611 48.73533,6.08836 72.26895,-1.79724 13.61499,-4.56124 33.18329,-23.58574 46.20473,-23.90088 20.62745,-0.49878 36.90218,23.9068 62.79461,20.03153 24.85459,-3.71889 54.54646,-24.40914 79.37262,-14.32584 44.91693,18.24376 -12.51437,47.04945 -11.71823,67.95532 1.22976,32.31606 48.61804,55.30588 54.55476,91.22473 1.9098,11.55711 1.18711,24.61528 14.03202,28.43368 3.29713,-24.58921 7.21031,-49.75776 -6.28147,-72.26894 -9.2682,-15.46437 -32.30896,-28.31403 -35.60608,-46.20474 -5.88103,-31.91444 52.15685,-50.72806 5.16071,-83.80117 -39.07973,-27.50129 -77.66897,20.65589 -119.65841,9.7338 -34.28747,-8.9187 -22.02545,-44.56388 -46.20474,-63.3621 -2.67869,28.61969 -11.79642,51.76353 -37.91158,66.66751 -43.90397,25.05482 -98.41253,8.51234 -98.33315,-45.34224 -15.29969,7.36077 -31.36354,2.55429 -46.20474,13.01078 -32.60158,22.96849 -21.75769,63.98882 -39.09631,94.80027 -61.25208,-24.5359 -58.97975,-118.41919 -17.77105,-157.4764 27.39704,-25.96707 71.27732,-33.16553 107.81105,-29.3329 16.17284,1.69773 39.96709,10.76807 55.67315,6.01372 17.63717,-5.34079 34.94855,-40.484818 52.13789,-51.743378 69.40781,-45.460719 181.70664,-46.160898 180.08,61.936858 M 339.51396,502.80712 c 4.76738,-13.73346 1.68114,-27.3994 5.45808,-40.28105 10.02643,-34.20098 40.09979,-96.63187 -5.45808,-122.15821 -19.60621,-10.98606 -35.88331,-14.09244 -58.0521,-14.08652 -6.28029,0.002 -22.69719,4.70933 -26.8651,-0.72506 -13.63039,-17.77105 20.19503,-29.98213 31.60404,-31.26283 -10.44345,-26.01564 -33.93678,-45.73914 -43.34833,-72.64688 -5.29104,-15.12553 7.17476,-52.97195 28.75593,-37.59644 15.9584,11.37111 25.97299,55.82125 36.89389,73.51648 8.85354,14.34479 18.83139,27.78326 28.63983,41.46578 9.8961,13.80337 23.98618,25.9801 32.65134,40.28106 7.52308,12.41722 4.46528,26.95987 8.62489,40.28105 15.80794,50.62262 35.89871,107.81815 -38.90439,123.21262 M 269.61449,340.88678 c 21.02315,-2.44175 46.94282,1.84463 63.96631,14.94901 11.76562,9.05731 16.89316,31.56494 -3.54473,34.56351 -12.4895,1.8316 -70.09022,-3.19168 -80.50169,-9.66983 -21.75887,-13.54035 4.09801,-37.9874 20.08011,-39.84269 m 266.61317,9.19237 c -19.13587,5.44386 -28.78911,80.21971 -4.79582,74.88603 22.09653,-4.91192 25.00387,-80.63437 4.79582,-74.88603 m 161.07444,7.03971 c -23.88903,2.8481 -35.0919,81.80489 -10.65907,79.72923 26.23362,-2.22968 34.87272,-82.61762 10.65907,-79.72923 m -433.6113,35.94491 c 20.74475,-3.14192 51.77063,0.0178 68.61877,13.42899 12.3343,9.81792 14.57819,34.54337 -4.65246,38.88899 -14.15049,3.19879 -66.2801,-0.84117 -78.17959,-8.91515 -19.64531,-13.33184 -5.62276,-40.39952 14.21328,-43.40283 m 315.13999,27.54987 c -21.91052,5.04935 -32.85393,53.4186 -7.37498,46.0057 6.13338,-1.78422 3.85987,-14.45142 6.8845,-19.46878 3.18694,-5.2863 33.95574,-34.24837 0.49048,-26.53692 m -323.44144,31.64669 c 16.88724,-1.69536 48.80642,1.17052 62.79579,11.16851 16.533,11.81538 12.22175,32.40848 -8.2896,35.39283 -16.02001,2.33156 -48.5825,1.27952 -61.4132,-9.66153 -13.24536,-11.29409 -12.23833,-34.97817 6.90701,-36.89981 m 446.65407,52.91627 c -0.82221,-6.44616 -7.27191,-19.63109 -15.99276,-16.50457 -7.39157,2.64789 -16.76758,20.10024 -27.8425,24.90317 -44.64207,19.35504 -126.80001,17.83976 -146.90736,-36.83229 -16.50457,4.50437 -6.9627,17.8066 0.40281,27.23947 13.56168,17.37417 35.12744,29.31868 56.46455,34.10739 32.38004,7.26599 63.16069,6.46392 93.59421,-7.96025 13.21811,-6.26488 25.97535,-23.95419 40.28105,-24.95292 m -327.27643,3.56369 c 13.31881,0.92764 -1.70958,28.8898 -5.8218,32.68215 -17.76868,16.39557 -46.02228,23.69947 -69.71228,20.05048 -9.00993,-1.38733 -32.53169,-17.4879 -18.44043,-27.73824 14.03558,-10.20888 49.74947,-4.50674 68.19937,-12.92193 6.86318,-3.13007 18.20704,-12.59849 25.77514,-12.07246 m 29.90749,4.72947 c 23.66631,9.66152 36.00771,58.1682 58.05329,75.55422 35.40586,27.92187 78.55871,32.3753 114.81284,55.05116 11.84382,7.40697 13.05343,59.32806 -1.39325,64.28263 -14.72627,5.04935 -39.2136,-1.55792 -54.18393,-4.0518 -53.89013,-8.97556 -112.11046,-32.27223 -155.20052,-66.06803 -12.16251,-9.5395 -46.63006,-31.5839 -47.05064,-48.82063 -0.20615,-8.43533 37.29196,-14.48341 44.68116,-17.76276 28.52254,-12.65654 33.40366,-31.02115 40.28105,-58.18479 m 452.56946,78.19262 c 6.78143,-20.27914 59.6515,-82.21836 77.57064,-39.6792 2.655,6.30398 -9.67811,15.78662 -13.59485,19.25553 -18.194,16.11834 -40.48483,20.42367 -63.97579,20.42367 m 50.94368,122.02789 v -3.55421 c -43.27014,-12.09379 -91.61806,-8.17586 -124.3014,26.07369 -14.02373,14.69429 -16.48206,56.78088 -38.00754,57.94903 -36.17475,1.96311 -119.33854,5.09556 -146.28419,-24.00869 -17.0069,-18.37053 -3.26158,-74.283 2.1965,-95.55613 1.85056,-7.21149 6.13694,-24.9008 15.08999,-26.41015 10.86167,-1.83161 3.6952,28.89454 3.25685,34.70331 -2.37659,31.5294 -10.80954,78.85608 27.4077,91.46049 62.49723,20.61442 69.31539,-42.91827 79.83586,-85.53681 2.04959,-8.30619 11.31186,-53.51337 25.9789,-46.31018 5.44742,2.67514 -2.63722,23.83572 -3.76627,28.53913 -5.13939,21.42241 -7.47332,48.68083 11.68624,63.97579 -1.0094,-27.31293 -11.72416,-71.40054 15.51887,-91.4605 12.93258,-9.52291 33.74604,-4.97826 48.45692,-4.51622 42.27615,1.32809 143.35907,27.41837 159.64802,72.28198 12.90652,35.55158 -69.58196,64.33239 -90.93329,77.78982 -32.09333,20.2282 1.11247,54.10456 -20.14408,65.6747 -64.34898,35.02437 -108.35958,-22.58464 -76.59797,-81.85821 23.06801,-43.04859 67.71482,-48.92963 110.95889,-59.23684 M 719.81447,654.45343 c -8.23392,47.83375 -98.09147,51.74101 -80.5621,5.92369 30.21908,5.19862 52.00165,10.21598 80.5621,-5.92369 m -14.21684,45.02 c -3.63951,14.47038 -5.80995,47.93801 -19.17496,56.57474 -32.20707,20.81109 -79.11317,-28.97037 -52.05971,-53.24563 3.53526,-3.17272 63.22348,-3.97834 71.23467,-3.32911 M 464.86255,922.44449 c -7.21718,-18.88826 35.89468,-48.83067 48.33963,-61.51272 97.52576,-99.38449 181.22149,-29.80364 268.95468,40.44759 87.7332,70.2512 -290.27319,91.7826 -317.29431,21.06513 z m 442.14034,-68.95527 c -1.67996,42.78677 -70.21343,72.52248 -91.22474,24.87947 34.94855,0 64.2625,1.34823 91.22474,-24.87947 m -56.86737,81.74684 c 29.27485,43.218 58.58997,86.34364 90.20112,127.95164 7.10842,9.3594 31.55665,33.457 27.90648,46.1455 -9.25517,32.2011 -41.04995,3.3173 -52.94352,-7.3098 -41.70748,-37.2363 -115.80802,-80.5384 -142.17197,-130.06054 21.70319,-11.3853 53.70649,-31.66087 77.00789,-36.7268 m -220.36104,59.2368 c -1.80554,30.10424 -9.47198,59.86484 -11.68862,90.04014 -0.85064,11.5867 2.61353,32.0708 -2.31734,42.3188 -2.92038,6.0658 -19.64412,5.118 -24.87118,2.7722 -9.70537,-4.3598 -10.45649,-25.3178 -12.65299,-34.4284 -8.13204,-33.7532 -12.25255,-68.0868 -19.55408,-101.88744 20.71867,-4.8491 49.42485,1.1847 71.08421,1.1847 M 512.48553,1135.4566 c -7.13922,16.5034 -40.66016,29.0616 -49.75894,7.1085 16.67635,-6.4095 32.17152,-7.7364 49.75894,-7.1085 m 456.12367,20.1406 c 6.56463,-4.4191 12.43144,-9.7504 18.95579,-14.1695 6.98758,-4.7271 40.80711,-6.4331 37.42821,8.9329 -1.2795,5.8289 -14.1647,3.8149 -18.4712,5.9711 -15.36726,7.7008 -25.81427,26.6921 -37.9128,-0.7345 z"
       id="path1647"
       sodipodi:nodetypes="cccccccscsscssscscccccccccscccccccsccccsccssccsssccccccccsccssccscsccccccccccccscsccscccccsccccccccccccccccccsccccscccccsccccssccccccccccccscccccsccccccsccccccccccscsccccsccsscsccccccccccsszscccccccccccccccccccccccc" />
  </g>
</svg>
