<?xml version="1.0" encoding="UTF-8" standalone="no"?>
<svg
   width="20.000046pt"
   height="24pt"
   version="1.1"
   viewBox="0 0 20.000046 24"
   id="svg903"
   sodipodi:docname="finger.svg"
   inkscape:version="1.1.2 (0a00cf5339, 2022-02-04)"
   xmlns:inkscape="http://www.inkscape.org/namespaces/inkscape"
   xmlns:sodipodi="http://sodipodi.sourceforge.net/DTD/sodipodi-0.dtd"
   xmlns="http://www.w3.org/2000/svg"
   xmlns:svg="http://www.w3.org/2000/svg">
  <defs
     id="defs907" />
  <sodipodi:namedview
     id="namedview905"
     pagecolor="#ffffff"
     bordercolor="#cccccc"
     borderopacity="1"
     inkscape:pageshadow="0"
     inkscape:pageopacity="1"
     inkscape:pagecheckerboard="0"
     inkscape:document-units="pt"
     showgrid="false"
     fit-margin-top="0"
     fit-margin-left="0"
     fit-margin-right="0"
     fit-margin-bottom="0"
     inkscape:zoom="5.115"
     inkscape:cx="36.168133"
     inkscape:cy="62.561095"
     inkscape:window-width="1920"
     inkscape:window-height="1056"
     inkscape:window-x="1920"
     inkscape:window-y="0"
     inkscape:window-maximized="1"
     inkscape:current-layer="svg903" />
  <path
     d="M 5.7759546,2.4000067 C 5.7759546,1.0850078 6.8309596,0 8.1539716,0 9.4779816,0 10.531988,1.0850078 10.531988,2.4000067 V 6.130961 C 10.775987,6.045961 11.037,5.9999603 11.31,5.9999603 c 0.972009,0 1.797995,0.5850129 2.169017,1.4149927 0.300007,-0.138 0.634011,-0.215 0.987011,-0.215 0.844008,0 1.579012,0.441013 2.000005,1.102007 0.340993,-0.192001 0.735004,-0.302004 1.155997,-0.302004 1.32401,0 2.378016,1.085007 2.378016,2.400006 v 8.000022 C 20.000046,21.481977 17.533044,24 14.466079,24 H 8.4421256 c -2.417005,0 -4.519948,-1.580011 -5.25595,-3.848971 -0.021,-0.063 -0.04,-0.124001 -0.059,-0.182001 -0.089,-0.278989 -0.163001,-0.508008 -0.26299,-0.73101 L 0.19307457,13.304946 c -0.072,-0.160001 -0.171001,-0.40699 -0.189,-0.701007 -0.076,-1.268996 0.920015,-2.404 2.24799303,-2.404 1.188996,0 2.193005,0.801999 2.929928,1.524996 0.205001,0.201001 0.403995,0.411009 0.593999,0.61901 z"
     fill="#ff5b00"
     fill-rule="evenodd"
     id="path901"
     style="stroke-width:1" />
</svg>
